{
  "consumer": {
    "name": "snoutify"
  },
  "provider": {
    "name": "spotify"
  },
  "interactions": [
    {
      "description": "OPTIONS /v1/playlists/playlist-id/tracks (POST)",
      "providerState": "with 3 albums",
      "request": {
        "method": "OPTIONS",
        "path": "/v1/playlists/playlist-id/tracks",
        "headers": {
          "Origin": "http://localhost",
          "Access-Control-Request-Method": "POST",
          "Access-Control-Request-Headers": "authorization"
        }
      },
      "response": {
        "status": 200,
        "headers": {
          "Access-Control-Allow-Origin": "http://localhost",
          "Access-Control-Allow-Credentials": "true",
          "Access-Control-Allow-Headers": "authorization"
        }
      }
    },
    {
      "description": "POST /v1/playlists/:id/tracks",
      "providerState": "with 3 albums",
      "request": {
        "method": "POST",
        "path": "/v1/playlists/playlist-id/tracks",
        "headers": {
          "Authorization": "Bearer real-access-token",
          "Content-Type": "application/json;charset=utf-8"
        },
        "body": {
          "uris": [
            "spotify:track:track-id-1",
            "spotify:track:track-id-2"
          ]
        }
      },
      "response": {
        "status": 201,
        "headers": {
        }
      }
    },
    {
      "description": "OPTIONS /v1/me/playlists (POST)",
      "providerState": "with 3 albums",
      "request": {
        "method": "OPTIONS",
        "path": "/v1/me/playlists",
        "headers": {
          "Origin": "http://localhost",
          "Access-Control-Request-Method": "POST",
          "Access-Control-Request-Headers": "authorization"
        }
      },
      "response": {
        "status": 200,
        "headers": {
          "Access-Control-Allow-Origin": "http://localhost",
          "Access-Control-Allow-Credentials": "true",
          "Access-Control-Allow-Headers": "authorization"
        }
      }
    },
    {
      "description": "POST /v1/me/playlists",
      "providerState": "with 3 albums",
      "request": {
        "method": "POST",
        "path": "/v1/me/playlists",
        "headers": {
          "Authorization": "Bearer real-access-token",
          "Content-Type": "application/json;charset=utf-8"
        },
        "body": {
          "name": "playlist-name",
          "description": "playlist-description",
          "public": false
        }
      },
      "response": {
        "status": 201,
        "headers": {
          "Content-Type": "application/json"
        },
        "body": {
          "id": "new-playlist-id"
        }
      }
    },
    {
      "description": "OPTIONS /v1/me/albums?ids=album-1-id,album-2-id (DELETE)",
      "providerState": "with 3 albums",
      "request": {
        "method": "OPTIONS",
        "path": "/v1/me/albums",
        "query": "ids=album-1-id,album-2-id",
        "headers": {
          "Origin": "http://localhost",
          "Access-Control-Request-Method": "DELETE",
          "Access-Control-Request-Headers": "authorization"
        }
      },
      "response": {
        "status": 200,
        "headers": {
          "Access-Control-Allow-Origin": "http://localhost",
          "Access-Control-Allow-Credentials": "true",
          "Access-Control-Allow-Headers": "authorization"
        }
      }
    },
    {
      "description": "DELETE /v1/me/albums",
      "providerState": "with 3 albums",
      "request": {
        "method": "DELETE",
        "path": "/v1/me/albums",
        "query": "ids=album-1-id,album-2-id",
        "headers": {
          "Authorization": "Bearer real-access-token"
        }
      },
      "response": {
        "status": 200,
        "headers": {
        }
      }
    },
    {
      "description": "OPTIONS /v1/me/albums?offset=0&limit=1 (GET)",
      "providerState": "with 3 albums",
      "request": {
        "method": "OPTIONS",
        "path": "/v1/me/albums",
        "query": "offset=0&limit=1",
        "headers": {
          "Origin": "http://localhost",
          "Access-Control-Request-Method": "GET",
          "Access-Control-Request-Headers": "authorization"
        }
      },
      "response": {
        "status": 200,
        "headers": {
          "Access-Control-Allow-Origin": "http://localhost",
          "Access-Control-Allow-Credentials": "true",
          "Access-Control-Allow-Headers": "authorization"
        }
      }
    },
    {
      "description": "GET /v1/me/albums (count)",
      "providerState": "with 3 albums",
      "request": {
        "method": "GET",
        "path": "/v1/me/albums",
        "query": "offset=0&limit=1",
        "headers": {
          "Authorization": "Bearer real-access-token"
        }
      },
      "response": {
        "status": 200,
        "headers": {
          "Content-Type": "application/json"
        },
        "body": {
          "items": [
            {
              "album": {
                "id": "album-1-id",
                "name": "album-1-name",
                "artists": [
                  {
                    "name": "artist-1"
                  },
                  {
                    "name": "artist-2"
                  }
                ],
                "images": [
                  {
                    "width": 480,
                    "height": 480,
                    "url": "/images/album-1.png"
                  }
                ],
                "tracks": {
                  "items": [
                    {
                      "id": "album-1-track-1"
                    },
                    {
                      "id": "album-1-track-2"
                    },
                    {
                      "id": "album-1-track-3"
                    }
                  ],
                  "total": 3,
                  "next": null
                }
              }
            }
          ],
          "total": 3
        }
      }
    },
    {
      "description": "GET /v1/me/albums (by offset)",
      "providerState": "with 3 albums",
      "request": {
        "method": "GET",
        "path": "/v1/me/albums",
        "query": "offset=0&limit=1",
        "headers": {
          "Authorization": "Bearer real-access-token"
        }
      },
      "response": {
        "status": 200,
        "headers": {
          "Content-Type": "application/json"
        },
        "body": {
          "items": [
            {
              "album": {
                "id": "album-1-id",
                "name": "album-1-name",
                "artists": [
                  {
                    "name": "artist-1"
                  },
                  {
                    "name": "artist-2"
                  }
                ],
                "images": [
                  {
                    "width": 480,
                    "height": 480,
                    "url": "/images/album-1.png"
                  }
                ],
                "tracks": {
                  "items": [
                    {
                      "id": "album-1-track-1"
                    },
                    {
                      "id": "album-1-track-2"
                    },
                    {
                      "id": "album-1-track-3"
                    }
                  ],
                  "total": 3,
                  "next": null
                }
              }
            }
          ],
          "total": 3
        }
      }
    },
    {
      "description": "OPTIONS /v1/me/albums?offset=0&limit=1 (GET)",
      "providerState": "with paginated album",
      "request": {
        "method": "OPTIONS",
        "path": "/v1/me/albums",
        "query": "offset=0&limit=1",
        "headers": {
          "Origin": "http://localhost",
          "Access-Control-Request-Method": "GET",
          "Access-Control-Request-Headers": "authorization"
        }
      },
      "response": {
        "status": 200,
        "headers": {
          "Access-Control-Allow-Origin": "http://localhost",
          "Access-Control-Allow-Credentials": "true",
          "Access-Control-Allow-Headers": "authorization"
        }
      }
    },
    {
      "description": "GET /v1/me/albums (paginated)",
      "providerState": "with paginated album",
      "request": {
        "method": "GET",
        "path": "/v1/me/albums",
        "query": "offset=0&limit=1",
        "headers": {
          "Authorization": "Bearer real-access-token"
        }
      },
      "response": {
        "status": 200,
        "headers": {
          "Content-Type": "application/json"
        },
        "body": {
          "items": [
            {
              "album": {
                "id": "album-4-id",
                "name": "album-4-name",
                "artists": [
                  {
                    "name": "artist-1"
                  },
                  {
                    "name": "artist-2"
                  }
                ],
                "images": [
                  {
                    "width": 480,
                    "height": 480,
                    "url": "/images/album-4.png"
                  }
                ],
                "tracks": {
                  "items": [
                    {
                      "id": "album-4-track-1"
                    },
                    {
                      "id": "album-4-track-2"
                    },
                    {
                      "id": "album-4-track-3"
                    },
                    {
                      "id": "album-4-track-4"
                    },
                    {
                      "id": "album-4-track-5"
                    },
                    {
                      "id": "album-4-track-6"
                    },
                    {
                      "id": "album-4-track-7"
                    },
                    {
                      "id": "album-4-track-8"
                    },
                    {
                      "id": "album-4-track-9"
                    },
                    {
                      "id": "album-4-track-10"
                    },
                    {
                      "id": "album-4-track-11"
                    },
                    {
                      "id": "album-4-track-12"
                    },
                    {
                      "id": "album-4-track-13"
                    },
                    {
                      "id": "album-4-track-14"
                    },
                    {
                      "id": "album-4-track-15"
                    },
                    {
                      "id": "album-4-track-16"
                    },
                    {
                      "id": "album-4-track-17"
                    },
                    {
                      "id": "album-4-track-18"
                    },
                    {
                      "id": "album-4-track-19"
                    },
                    {
                      "id": "album-4-track-20"
                    },
                    {
                      "id": "album-4-track-21"
                    },
                    {
                      "id": "album-4-track-22"
                    },
                    {
                      "id": "album-4-track-23"
                    },
                    {
                      "id": "album-4-track-24"
                    },
                    {
                      "id": "album-4-track-25"
                    },
                    {
                      "id": "album-4-track-26"
                    },
                    {
                      "id": "album-4-track-27"
                    },
                    {
                      "id": "album-4-track-28"
                    },
                    {
                      "id": "album-4-track-29"
                    },
                    {
                      "id": "album-4-track-30"
                    },
                    {
                      "id": "album-4-track-31"
                    },
                    {
                      "id": "album-4-track-32"
                    },
                    {
                      "id": "album-4-track-33"
                    },
                    {
                      "id": "album-4-track-34"
                    },
                    {
                      "id": "album-4-track-35"
                    },
                    {
                      "id": "album-4-track-36"
                    },
                    {
                      "id": "album-4-track-37"
                    },
                    {
                      "id": "album-4-track-38"
                    },
                    {
                      "id": "album-4-track-39"
                    },
                    {
                      "id": "album-4-track-40"
                    },
                    {
                      "id": "album-4-track-41"
                    },
                    {
                      "id": "album-4-track-42"
                    },
                    {
                      "id": "album-4-track-43"
                    },
                    {
                      "id": "album-4-track-44"
                    },
                    {
                      "id": "album-4-track-45"
                    },
                    {
                      "id": "album-4-track-46"
                    },
                    {
                      "id": "album-4-track-47"
                    },
                    {
                      "id": "album-4-track-48"
                    },
                    {
                      "id": "album-4-track-49"
                    },
                    {
                      "id": "album-4-track-50"
                    }
                  ],
                  "total": 101,
                  "next": "http://localhost:8123/v1/albums/album-4-id/tracks?offset=50&limit=50"
                }
              }
            }
          ],
          "total": 1
        },
        "matchingRules": {
          "$.body.items[0].album.tracks.next": {
            "match": "regex",
            "regex": ".*?\\/v1\\/albums\\/album-4-id\\/tracks\\?offset=50&limit=50"
          }
        }
      }
    },
    {
      "description": "OPTIONS /v1/albums/album-4-id/tracks?offset=50&limit=50 (GET)",
      "providerState": "with paginated album",
      "request": {
        "method": "OPTIONS",
        "path": "/v1/albums/album-4-id/tracks",
        "query": "offset=50&limit=50",
        "headers": {
          "Origin": "http://localhost",
          "Access-Control-Request-Method": "GET",
          "Access-Control-Request-Headers": "authorization"
        }
      },
      "response": {
        "status": 200,
        "headers": {
          "Access-Control-Allow-Origin": "http://localhost",
          "Access-Control-Allow-Credentials": "true",
          "Access-Control-Allow-Headers": "authorization"
        }
      }
    },
    {
      "description": "GET /v1/albums/album-4-id/tracks (page 2)",
      "providerState": "with paginated album",
      "request": {
        "method": "GET",
        "path": "/v1/albums/album-4-id/tracks",
        "query": "offset=50&limit=50",
        "headers": {
          "Authorization": "Bearer real-access-token"
        }
      },
      "response": {
        "status": 200,
        "headers": {
          "Content-Type": "application/json"
        },
        "body": {
          "items": [
            {
              "id": "album-4-track-51"
            },
            {
              "id": "album-4-track-52"
            },
            {
              "id": "album-4-track-53"
            },
            {
              "id": "album-4-track-54"
            },
            {
              "id": "album-4-track-55"
            },
            {
              "id": "album-4-track-56"
            },
            {
              "id": "album-4-track-57"
            },
            {
              "id": "album-4-track-58"
            },
            {
              "id": "album-4-track-59"
            },
            {
              "id": "album-4-track-60"
            },
            {
              "id": "album-4-track-61"
            },
            {
              "id": "album-4-track-62"
            },
            {
              "id": "album-4-track-63"
            },
            {
              "id": "album-4-track-64"
            },
            {
              "id": "album-4-track-65"
            },
            {
              "id": "album-4-track-66"
            },
            {
              "id": "album-4-track-67"
            },
            {
              "id": "album-4-track-68"
            },
            {
              "id": "album-4-track-69"
            },
            {
              "id": "album-4-track-70"
            },
            {
              "id": "album-4-track-71"
            },
            {
              "id": "album-4-track-72"
            },
            {
              "id": "album-4-track-73"
            },
            {
              "id": "album-4-track-74"
            },
            {
              "id": "album-4-track-75"
            },
            {
              "id": "album-4-track-76"
            },
            {
              "id": "album-4-track-77"
            },
            {
              "id": "album-4-track-78"
            },
            {
              "id": "album-4-track-79"
            },
            {
              "id": "album-4-track-80"
            },
            {
              "id": "album-4-track-81"
            },
            {
              "id": "album-4-track-82"
            },
            {
              "id": "album-4-track-83"
            },
            {
              "id": "album-4-track-84"
            },
            {
              "id": "album-4-track-85"
            },
            {
              "id": "album-4-track-86"
            },
            {
              "id": "album-4-track-87"
            },
            {
              "id": "album-4-track-88"
            },
            {
              "id": "album-4-track-89"
            },
            {
              "id": "album-4-track-90"
            },
            {
              "id": "album-4-track-91"
            },
            {
              "id": "album-4-track-92"
            },
            {
              "id": "album-4-track-93"
            },
            {
              "id": "album-4-track-94"
            },
            {
              "id": "album-4-track-95"
            },
            {
              "id": "album-4-track-96"
            },
            {
              "id": "album-4-track-97"
            },
            {
              "id": "album-4-track-98"
            },
            {
              "id": "album-4-track-99"
            },
            {
              "id": "album-4-track-100"
            }
          ],
          "total": 101,
          "next": "http://localhost:8123/v1/albums/album-4-id/tracks?offset=100&limit=50"
        },
        "matchingRules": {
          "$.body.next": {
            "match": "regex",
            "regex": ".*?\\/v1\\/albums\\/album-4-id\\/tracks\\?offset=100&limit=50"
          }
        }
      }
    },
    {
      "description": "OPTIONS /v1/albums/album-4-id/tracks?offset=100&limit=50 (GET)",
      "providerState": "with paginated album",
      "request": {
        "method": "OPTIONS",
        "path": "/v1/albums/album-4-id/tracks",
        "query": "offset=100&limit=50",
        "headers": {
          "Origin": "http://localhost",
          "Access-Control-Request-Method": "GET",
          "Access-Control-Request-Headers": "authorization"
        }
      },
      "response": {
        "status": 200,
        "headers": {
          "Access-Control-Allow-Origin": "http://localhost",
          "Access-Control-Allow-Credentials": "true",
          "Access-Control-Allow-Headers": "authorization"
        }
      }
    },
    {
      "description": "GET /v1/albums/album-4-id/tracks (page 3)",
      "providerState": "with paginated album",
      "request": {
        "method": "GET",
        "path": "/v1/albums/album-4-id/tracks",
        "query": "offset=100&limit=50",
        "headers": {
          "Authorization": "Bearer real-access-token"
        }
      },
      "response": {
        "status": 200,
        "headers": {
          "Content-Type": "application/json"
        },
        "body": {
          "items": [
            {
              "id": "album-4-track-101"
            }
          ],
          "total": 101,
          "next": null
        }
      }
    },
    {
      "description": "OPTIONS /v1/me/tracks?offset=0&limit=1 (GET)",
      "providerState": "with 5 tracks",
      "request": {
        "method": "OPTIONS",
        "path": "/v1/me/tracks",
        "query": "offset=0&limit=1",
        "headers": {
          "Origin": "http://localhost",
          "Access-Control-Request-Method": "GET",
          "Access-Control-Request-Headers": "authorization"
        }
      },
      "response": {
        "status": 200,
        "headers": {
          "Access-Control-Allow-Origin": "http://localhost",
          "Access-Control-Allow-Credentials": "true",
          "Access-Control-Allow-Headers": "authorization"
        }
      }
    },
    {
      "description": "GET /v1/me/tracks",
      "providerState": "with 5 tracks",
      "request": {
        "method": "GET",
        "path": "/v1/me/tracks",
        "query": "offset=0&limit=1",
        "headers": {
          "Authorization": "Bearer real-access-token"
        }
      },
      "response": {
        "status": 200,
        "headers": {
          "Content-Type": "application/json"
        },
        "body": {
          "total": 5
        }
      }
    },
    {
      "description": "OPTIONS /v1/me (GET)",
      "providerState": "with test user",
      "request": {
        "method": "OPTIONS",
        "path": "/v1/me",
        "headers": {
          "Origin": "http://localhost",
          "Access-Control-Request-Method": "GET",
          "Access-Control-Request-Headers": "authorization"
        }
      },
      "response": {
        "status": 200,
        "headers": {
          "Access-Control-Allow-Origin": "http://localhost",
          "Access-Control-Allow-Credentials": "true",
          "Access-Control-Allow-Headers": "authorization"
        }
      }
    },
    {
      "description": "GET /v1/me",
      "providerState": "with test user",
      "request": {
        "method": "GET",
        "path": "/v1/me",
        "headers": {
          "Authorization": "Bearer real-access-token"
        }
      },
      "response": {
        "status": 200,
        "headers": {
          "Content-Type": "application/json"
        },
        "body": {
          "display_name": "Test User"
        }
      }
    },
    {
      "description": "OPTIONS /v1/me (GET)",
      "providerState": "endpoints returning 500",
      "request": {
        "method": "OPTIONS",
        "path": "/v1/me",
        "headers": {
          "Origin": "http://localhost",
          "Access-Control-Request-Method": "GET",
          "Access-Control-Request-Headers": "authorization"
        }
      },
      "response": {
        "status": 200,
        "headers": {
          "Access-Control-Allow-Origin": "http://localhost",
          "Access-Control-Allow-Credentials": "true",
          "Access-Control-Allow-Headers": "authorization"
        }
      }
    },
    {
      "description": "GET /v1/me (error)",
      "providerState": "endpoints returning 500",
      "request": {
        "method": "GET",
        "path": "/v1/me",
        "headers": {
          "Authorization": "Bearer real-access-token"
        }
      },
      "response": {
        "status": 500,
        "headers": {
        }
      }
    }
  ],
  "metadata": {
    "pactSpecification": {
      "version": "2.0.0"
    }
  }
}